%YAML 1.1
%TAG !u! tag:unity3d.com,2011:
--- !u!1045 &1
EditorBuildSettings:
  m_ObjectHideFlags: 0
  serializedVersion: 2
  m_Scenes:
  - enabled: 1
    path: Assets/Scenes/scene-menu.unity
    guid: 532d06ae377c745cf83f3db43ac9170e
  - enabled: 1
    path: Assets/Scenes/scene-game.unity
    guid: 2cda990e2423bbf4892e6590ba056729
  - enabled: 1
    path: Assets/Scenes/scene-end-win.unity
    guid: 664f149f4f03f43b4b0b69a57a96a153
  - enabled: 1
    path: Assets/Scenes/scene-end-lose.unity
    guid: 42396d7939f4d4791a6e5a37dd023a71
  m_configObjects: {}
